[
  {
    "DateOfBirth": "2000-08-31T00:00:00",
    "Gender": 0,
    "LastVisit": "2013-02-23T00:00:00",
    "Name": "knxsdi",
    "Online": false,
    "UserId": 1
  },
  {
    "DateOfBirth": "1969-06-02T00:00:00",
    "Gender": 1,
    "LastVisit": "2013-03-22T00:00:00",
    "Name": "kltokvr",
    "Online": true,
    "UserId": 2
  },
  {
    "DateOfBirth": "2012-06-29T00:00:00",
    "Gender": 0,
    "LastVisit": "2013-04-01T00:00:00",
    "Name": "tirsjx",
    "Online": false,
    "UserId": 3
  },
  {
    "DateOfBirth": "1992-03-23T00:00:00",
    "Gender": 1,
    "LastVisit": "2013-02-03T00:00:00",
    "Name": "cpynwk",
    "Online": false,
    "UserId": 4
  },
  {
    "DateOfBirth": "1961-04-02T00:00:00",
    "Gender": 1,
    "LastVisit": "2013-01-27T00:00:00",
    "Name": "acsaem",
    "Online": true,
    "UserId": 5
  },
  {
    "DateOfBirth": "1973-12-07T00:00:00",
    "Gender": 1,
    "LastVisit": "2013-03-27T00:00:00",
    "Name": "whutuhw",
    "Online": false,
    "UserId": 6
  },
  {
    "DateOfBirth": "1999-06-10T00:00:00",
    "Gender": 1,
    "LastVisit": "2013-02-28T00:00:00",
    "Name": "fiptbi",
    "Online": true,
    "UserId": 7
  },
  {
    "DateOfBirth": "1977-06-13T00:00:00",
    "Gender": 0,
    "LastVisit": "2013-01-14T00:00:00",
    "Name": "yehxrhd",
    "Online": true,
    "UserId": 8
  },
  {
    "DateOfBirth": "1995-12-19T00:00:00",
    "Gender": 0,
    "LastVisit": "2013-03-03T00:00:00",
    "Name": "nrbsltu",
    "Online": false,
    "UserId": 9
  },
  {
    "DateOfBirth": "2000-04-15T00:00:00",
    "Gender": 1,
    "LastVisit": "2013-02-08T00:00:00",
    "Name": "xkwmxnch",
    "Online": true,
    "UserId": 10
  },
  {
    "DateOfBirth": "1976-03-04T00:00:00",
    "Gender": 1,
    "LastVisit": "2013-01-15T00:00:00",
    "Name": "omxmbg",
    "Online": false,
    "UserId": 11
  },
  {
    "DateOfBirth": "1997-04-18T00:00:00",
    "Gender": 0,
    "LastVisit": "2013-01-14T00:00:00",
    "Name": "tnuxrmf",
    "Online": true,
    "UserId": 12
  },
  {
    "DateOfBirth": "1972-11-17T00:00:00",
    "Gender": 1,
    "LastVisit": "2013-02-03T00:00:00",
    "Name": "wxavgu",
    "Online": false,
    "UserId": 13
  },
  {
    "DateOfBirth": "1984-09-24T00:00:00",
    "Gender": 1,
    "LastVisit": "2013-02-20T00:00:00",
    "Name": "otnfyu",
    "Online": true,
    "UserId": 14
  },
  {
    "DateOfBirth": "1962-04-18T00:00:00",
    "Gender": 1,
    "LastVisit": "2013-02-05T00:00:00",
    "Name": "funxrvh",
    "Online": false,
    "UserId": 15
  },
  {
    "DateOfBirth": "2010-03-01T00:00:00",
    "Gender": 0,
    "LastVisit": "2013-03-06T00:00:00",
    "Name": "njsaaq",
    "Online": false,
    "UserId": 16
  },
  {
    "DateOfBirth": "1994-01-26T00:00:00",
    "Gender": 1,
    "LastVisit": "2013-01-25T00:00:00",
    "Name": "qbuvjqo",
    "Online": false,
    "UserId": 17
  },
  {
    "DateOfBirth": "1980-12-11T00:00:00",
    "Gender": 0,
    "LastVisit": "2013-03-22T00:00:00",
    "Name": "vcnwan",
    "Online": true,
    "UserId": 18
  },
  {
    "DateOfBirth": "2005-04-06T00:00:00",
    "Gender": 0,
    "LastVisit": "2013-01-27T00:00:00",
    "Name": "prniik",
    "Online": false,
    "UserId": 19
  },
  {
    "DateOfBirth": "1999-11-12T00:00:00",
    "Gender": 0,
    "LastVisit": "2013-03-24T00:00:00",
    "Name": "konxuu",
    "Online": true,
    "UserId": 20
  },
  {
    "DateOfBirth": "2006-10-01T00:00:00",
    "Gender": 0,
    "LastVisit": "2013-04-02T00:00:00",
    "Name": "tchtem",
    "Online": true,
    "UserId": 21
  },
  {
    "DateOfBirth": "1970-11-29T00:00:00",
    "Gender": 0,
    "LastVisit": "2013-02-17T00:00:00",
    "Name": "lrctrnkb",
    "Online": false,
    "UserId": 22
  },
  {
    "DateOfBirth": "2011-03-14T00:00:00",
    "Gender": 0,
    "LastVisit": "2013-03-14T00:00:00",
    "Name": "cuikais",
    "Online": true,
    "UserId": 23
  },
  {
    "DateOfBirth": "1971-11-05T00:00:00",
    "Gender": 0,
    "LastVisit": "2013-03-11T00:00:00",
    "Name": "hpgsls",
    "Online": false,
    "UserId": 24
  },
  {
    "DateOfBirth": "1999-09-09T00:00:00",
    "Gender": 1,
    "LastVisit": "2013-02-05T00:00:00",
    "Name": "wsjrere",
    "Online": true,
    "UserId": 25
  },
  {
    "DateOfBirth": "1973-10-08T00:00:00",
    "Gender": 1,
    "LastVisit": "2013-02-12T00:00:00",
    "Name": "lopygxc",
    "Online": true,
    "UserId": 26
  },
  {
    "DateOfBirth": "1977-03-12T00:00:00",
    "Gender": 1,
    "LastVisit": "2013-04-06T00:00:00",
    "Name": "xxbagat",
    "Online": true,
    "UserId": 27
  },
  {
    "DateOfBirth": "2007-06-13T00:00:00",
    "Gender": 0,
    "LastVisit": "2013-02-03T00:00:00",
    "Name": "djlfpff",
    "Online": true,
    "UserId": 28
  },
  {
    "DateOfBirth": "1985-12-25T00:00:00",
    "Gender": 0,
    "LastVisit": "2013-02-23T00:00:00",
    "Name": "mosgen",
    "Online": true,
    "UserId": 29
  },
  {
    "DateOfBirth": "2012-06-12T00:00:00",
    "Gender": 0,
    "LastVisit": "2013-03-25T00:00:00",
    "Name": "olukbtbj",
    "Online": false,
    "UserId": 30
  },
  {
    "DateOfBirth": "2004-04-15T00:00:00",
    "Gender": 1,
    "LastVisit": "2013-02-23T00:00:00",
    "Name": "qfbbiest",
    "Online": true,
    "UserId": 31
  },
  {
    "DateOfBirth": "1996-05-27T00:00:00",
    "Gender": 1,
    "LastVisit": "2013-01-16T00:00:00",
    "Name": "rlcdlk",
    "Online": false,
    "UserId": 32
  },
  {
    "DateOfBirth": "2009-04-11T00:00:00",
    "Gender": 1,
    "LastVisit": "2013-01-27T00:00:00",
    "Name": "tiroho",
    "Online": false,
    "UserId": 33
  },
  {
    "DateOfBirth": "1967-11-19T00:00:00",
    "Gender": 0,
    "LastVisit": "2013-02-08T00:00:00",
    "Name": "xsxxws",
    "Online": true,
    "UserId": 34
  },
  {
    "DateOfBirth": "2013-01-20T00:00:00",
    "Gender": 1,
    "LastVisit": "2013-03-21T00:00:00",
    "Name": "wuywtny",
    "Online": false,
    "UserId": 35
  },
  {
    "DateOfBirth": "2008-04-29T00:00:00",
    "Gender": 0,
    "LastVisit": "2013-04-06T00:00:00",
    "Name": "nuktvpt",
    "Online": false,
    "UserId": 36
  },
  {
    "DateOfBirth": "1972-08-10T00:00:00",
    "Gender": 0,
    "LastVisit": "2013-02-27T00:00:00",
    "Name": "xvejwk",
    "Online": true,
    "UserId": 37
  },
  {
    "DateOfBirth": "1961-06-02T00:00:00",
    "Gender": 0,
    "LastVisit": "2013-01-27T00:00:00",
    "Name": "cjfaes",
    "Online": true,
    "UserId": 38
  },
  {
    "DateOfBirth": "2000-12-09T00:00:00",
    "Gender": 0,
    "LastVisit": "2013-02-01T00:00:00",
    "Name": "arqbwkyp",
    "Online": false,
    "UserId": 39
  },
  {
    "DateOfBirth": "1967-12-19T00:00:00",
    "Gender": 1,
    "LastVisit": "2013-01-21T00:00:00",
    "Name": "suypyfk",
    "Online": false,
    "UserId": 40
  },
  {
    "DateOfBirth": "1990-12-23T00:00:00",
    "Gender": 1,
    "LastVisit": "2013-02-11T00:00:00",
    "Name": "iipfduj",
    "Online": false,
    "UserId": 41
  },
  {
    "DateOfBirth": "1974-01-13T00:00:00",
    "Gender": 0,
    "LastVisit": "2013-03-28T00:00:00",
    "Name": "rkwenkjy",
    "Online": true,
    "UserId": 42
  },
  {
    "DateOfBirth": "1982-10-18T00:00:00",
    "Gender": 1,
    "LastVisit": "2013-01-19T00:00:00",
    "Name": "smeujavl",
    "Online": true,
    "UserId": 43
  },
  {
    "DateOfBirth": "1981-09-23T00:00:00",
    "Gender": 1,
    "LastVisit": "2013-02-12T00:00:00",
    "Name": "qrkkcgnf",
    "Online": true,
    "UserId": 44
  },
  {
    "DateOfBirth": "1999-07-20T00:00:00",
    "Gender": 0,
    "LastVisit": "2013-02-06T00:00:00",
    "Name": "ekmnlje",
    "Online": true,
    "UserId": 45
  },
  {
    "DateOfBirth": "2002-06-01T00:00:00",
    "Gender": 1,
    "LastVisit": "2013-03-15T00:00:00",
    "Name": "khthfun",
    "Online": false,
    "UserId": 46
  },
  {
    "DateOfBirth": "1985-05-21T00:00:00",
    "Gender": 0,
    "LastVisit": "2013-01-29T00:00:00",
    "Name": "wvpvjg",
    "Online": true,
    "UserId": 47
  },
  {
    "DateOfBirth": "1960-01-01T00:00:00",
    "Gender": 1,
    "LastVisit": "2013-04-04T00:00:00",
    "Name": "wqfhpvd",
    "Online": true,
    "UserId": 48
  },
  {
    "DateOfBirth": "1987-03-22T00:00:00",
    "Gender": 0,
    "LastVisit": "2013-03-24T00:00:00",
    "Name": "nqwxywu",
    "Online": true,
    "UserId": 49
  },
  {
    "DateOfBirth": "1990-05-27T00:00:00",
    "Gender": 1,
    "LastVisit": "2013-03-05T00:00:00",
    "Name": "rnyafjl",
    "Online": false,
    "UserId": 50
  },
  {
    "DateOfBirth": "1980-07-24T00:00:00",
    "Gender": 0,
    "LastVisit": "2013-01-25T00:00:00",
    "Name": "sgisao",
    "Online": false,
    "UserId": 51
  },
  {
    "DateOfBirth": "2006-06-27T00:00:00",
    "Gender": 0,
    "LastVisit": "2013-01-14T00:00:00",
    "Name": "yqwrpkok",
    "Online": true,
    "UserId": 52
  },
  {
    "DateOfBirth": "2007-03-26T00:00:00",
    "Gender": 1,
    "LastVisit": "2013-02-11T00:00:00",
    "Name": "fgyqhi",
    "Online": true,
    "UserId": 53
  },
  {
    "DateOfBirth": "1980-09-24T00:00:00",
    "Gender": 1,
    "LastVisit": "2013-03-01T00:00:00",
    "Name": "vorildho",
    "Online": false,
    "UserId": 54
  },
  {
    "DateOfBirth": "2000-11-26T00:00:00",
    "Gender": 0,
    "LastVisit": "2013-02-09T00:00:00",
    "Name": "wbhcbkh",
    "Online": true,
    "UserId": 55
  },
  {
    "DateOfBirth": "2005-01-03T00:00:00",
    "Gender": 1,
    "LastVisit": "2013-02-20T00:00:00",
    "Name": "xnmatfu",
    "Online": true,
    "UserId": 56
  },
  {
    "DateOfBirth": "2011-12-16T00:00:00",
    "Gender": 1,
    "LastVisit": "2013-02-22T00:00:00",
    "Name": "kgjsyaj",
    "Online": false,
    "UserId": 57
  },
  {
    "DateOfBirth": "1985-03-14T00:00:00",
    "Gender": 0,
    "LastVisit": "2013-02-04T00:00:00",
    "Name": "nghvpr",
    "Online": true,
    "UserId": 58
  },
  {
    "DateOfBirth": "1976-10-10T00:00:00",
    "Gender": 1,
    "LastVisit": "2013-01-10T00:00:00",
    "Name": "rdtasunh",
    "Online": false,
    "UserId": 59
  },
  {
    "DateOfBirth": "2013-04-07T00:00:00",
    "Gender": 0,
    "LastVisit": "2013-01-15T00:00:00",
    "Name": "xndhgn",
    "Online": false,
    "UserId": 60
  },
  {
    "DateOfBirth": "2001-10-07T00:00:00",
    "Gender": 0,
    "LastVisit": "2013-01-20T00:00:00",
    "Name": "sfoabji",
    "Online": true,
    "UserId": 61
  },
  {
    "DateOfBirth": "2010-06-15T00:00:00",
    "Gender": 0,
    "LastVisit": "2013-03-17T00:00:00",
    "Name": "pqslhmw",
    "Online": false,
    "UserId": 62
  },
  {
    "DateOfBirth": "1973-03-03T00:00:00",
    "Gender": 0,
    "LastVisit": "2013-04-01T00:00:00",
    "Name": "inbwxq",
    "Online": true,
    "UserId": 63
  },
  {
    "DateOfBirth": "1960-12-05T00:00:00",
    "Gender": 0,
    "LastVisit": "2013-02-26T00:00:00",
    "Name": "cmdromx",
    "Online": false,
    "UserId": 64
  },
  {
    "DateOfBirth": "1961-09-12T00:00:00",
    "Gender": 0,
    "LastVisit": "2013-02-12T00:00:00",
    "Name": "covmprtw",
    "Online": true,
    "UserId": 65
  },
  {
    "DateOfBirth": "1982-09-01T00:00:00",
    "Gender": 0,
    "LastVisit": "2013-01-21T00:00:00",
    "Name": "uljygtn",
    "Online": false,
    "UserId": 66
  },
  {
    "DateOfBirth": "1987-07-22T00:00:00",
    "Gender": 0,
    "LastVisit": "2013-03-05T00:00:00",
    "Name": "pcwrbmu",
    "Online": true,
    "UserId": 67
  },
  {
    "DateOfBirth": "1975-08-01T00:00:00",
    "Gender": 1,
    "LastVisit": "2013-01-12T00:00:00",
    "Name": "lnjxgorq",
    "Online": true,
    "UserId": 68
  },
  {
    "DateOfBirth": "1998-05-04T00:00:00",
    "Gender": 0,
    "LastVisit": "2013-02-27T00:00:00",
    "Name": "rxsxwkq",
    "Online": true,
    "UserId": 69
  },
  {
    "DateOfBirth": "1964-04-24T00:00:00",
    "Gender": 1,
    "LastVisit": "2013-03-12T00:00:00",
    "Name": "ylludbt",
    "Online": true,
    "UserId": 70
  },
  {
    "DateOfBirth": "2000-08-17T00:00:00",
    "Gender": 0,
    "LastVisit": "2013-02-26T00:00:00",
    "Name": "pyidbxs",
    "Online": true,
    "UserId": 71
  },
  {
    "DateOfBirth": "1992-05-28T00:00:00",
    "Gender": 0,
    "LastVisit": "2013-01-23T00:00:00",
    "Name": "mxuvqxg",
    "Online": true,
    "UserId": 72
  },
  {
    "DateOfBirth": "1964-11-27T00:00:00",
    "Gender": 0,
    "LastVisit": "2013-01-02T00:00:00",
    "Name": "dhsfham",
    "Online": true,
    "UserId": 73
  },
  {
    "DateOfBirth": "1964-08-14T00:00:00",
    "Gender": 0,
    "LastVisit": "2013-03-09T00:00:00",
    "Name": "dmmdqaq",
    "Online": true,
    "UserId": 74
  },
  {
    "DateOfBirth": "1965-04-03T00:00:00",
    "Gender": 0,
    "LastVisit": "2013-01-17T00:00:00",
    "Name": "eonpkkm",
    "Online": true,
    "UserId": 75
  },
  {
    "DateOfBirth": "2005-10-07T00:00:00",
    "Gender": 0,
    "LastVisit": "2013-03-05T00:00:00",
    "Name": "upngixsi",
    "Online": true,
    "UserId": 76
  },
  {
    "DateOfBirth": "1989-09-24T00:00:00",
    "Gender": 1,
    "LastVisit": "2013-04-03T00:00:00",
    "Name": "vrfnbdd",
    "Online": false,
    "UserId": 77
  },
  {
    "DateOfBirth": "1989-09-14T00:00:00",
    "Gender": 0,
    "LastVisit": "2013-01-05T00:00:00",
    "Name": "ggmrdp",
    "Online": true,
    "UserId": 78
  },
  {
    "DateOfBirth": "1997-09-18T00:00:00",
    "Gender": 0,
    "LastVisit": "2013-04-05T00:00:00",
    "Name": "xhshuofo",
    "Online": false,
    "UserId": 79
  },
  {
    "DateOfBirth": "1995-09-23T00:00:00",
    "Gender": 0,
    "LastVisit": "2013-02-28T00:00:00",
    "Name": "emklgst",
    "Online": true,
    "UserId": 80
  },
  {
    "DateOfBirth": "1998-12-16T00:00:00",
    "Gender": 0,
    "LastVisit": "2013-02-24T00:00:00",
    "Name": "yrdwbv",
    "Online": false,
    "UserId": 81
  },
  {
    "DateOfBirth": "1979-03-13T00:00:00",
    "Gender": 1,
    "LastVisit": "2013-03-15T00:00:00",
    "Name": "thunul",
    "Online": true,
    "UserId": 82
  },
  {
    "DateOfBirth": "2001-07-15T00:00:00",
    "Gender": 1,
    "LastVisit": "2013-01-13T00:00:00",
    "Name": "pmjmkjn",
    "Online": false,
    "UserId": 83
  },
  {
    "DateOfBirth": "2006-11-19T00:00:00",
    "Gender": 1,
    "LastVisit": "2013-04-03T00:00:00",
    "Name": "gedilc",
    "Online": true,
    "UserId": 84
  },
  {
    "DateOfBirth": "2008-08-16T00:00:00",
    "Gender": 0,
    "LastVisit": "2013-03-17T00:00:00",
    "Name": "fktkeg",
    "Online": false,
    "UserId": 85
  },
  {
    "DateOfBirth": "1983-03-04T00:00:00",
    "Gender": 0,
    "LastVisit": "2013-03-25T00:00:00",
    "Name": "vkjbbhlg",
    "Online": false,
    "UserId": 86
  },
  {
    "DateOfBirth": "1994-08-27T00:00:00",
    "Gender": 1,
    "LastVisit": "2013-02-21T00:00:00",
    "Name": "lsybdr",
    "Online": true,
    "UserId": 87
  },
  {
    "DateOfBirth": "1962-02-09T00:00:00",
    "Gender": 0,
    "LastVisit": "2013-02-01T00:00:00",
    "Name": "vjrcrabm",
    "Online": true,
    "UserId": 88
  },
  {
    "DateOfBirth": "1981-03-11T00:00:00",
    "Gender": 1,
    "LastVisit": "2013-03-11T00:00:00",
    "Name": "kaxpsfdi",
    "Online": true,
    "UserId": 89
  },
  {
    "DateOfBirth": "2001-02-08T00:00:00",
    "Gender": 1,
    "LastVisit": "2013-03-03T00:00:00",
    "Name": "gacfxkr",
    "Online": false,
    "UserId": 90
  },
  {
    "DateOfBirth": "1978-09-14T00:00:00",
    "Gender": 0,
    "LastVisit": "2013-03-18T00:00:00",
    "Name": "mytwddx",
    "Online": true,
    "UserId": 91
  },
  {
    "DateOfBirth": "1967-07-18T00:00:00",
    "Gender": 0,
    "LastVisit": "2013-04-09T00:00:00",
    "Name": "ukutleoh",
    "Online": false,
    "UserId": 92
  },
  {
    "DateOfBirth": "1975-03-08T00:00:00",
    "Gender": 1,
    "LastVisit": "2013-01-23T00:00:00",
    "Name": "ebtmurbc",
    "Online": true,
    "UserId": 93
  },
  {
    "DateOfBirth": "1969-02-18T00:00:00",
    "Gender": 1,
    "LastVisit": "2013-04-09T00:00:00",
    "Name": "kxopsme",
    "Online": true,
    "UserId": 94
  },
  {
    "DateOfBirth": "1978-04-20T00:00:00",
    "Gender": 1,
    "LastVisit": "2013-01-03T00:00:00",
    "Name": "gqmnfj",
    "Online": false,
    "UserId": 95
  },
  {
    "DateOfBirth": "1971-12-08T00:00:00",
    "Gender": 0,
    "LastVisit": "2013-03-16T00:00:00",
    "Name": "cewbfv",
    "Online": false,
    "UserId": 96
  },
  {
    "DateOfBirth": "1999-08-09T00:00:00",
    "Gender": 1,
    "LastVisit": "2013-01-15T00:00:00",
    "Name": "rtlbjij",
    "Online": true,
    "UserId": 97
  },
  {
    "DateOfBirth": "2007-06-16T00:00:00",
    "Gender": 1,
    "LastVisit": "2013-01-24T00:00:00",
    "Name": "vjohqw",
    "Online": true,
    "UserId": 98
  },
  {
    "DateOfBirth": "2011-08-21T00:00:00",
    "Gender": 0,
    "LastVisit": "2013-02-19T00:00:00",
    "Name": "yqcnsu",
    "Online": true,
    "UserId": 99
  },
  {
    "DateOfBirth": "1981-03-13T00:00:00",
    "Gender": 0,
    "LastVisit": "2013-02-19T00:00:00",
    "Name": "hifdklsa",
    "Online": false,
    "UserId": 100
  }
]